automate counts – TIL
…
count variables singly using pivot_longer

before getting on to doing multiple variables, an easy way to count lots of single variables

(recording it here because it took me, a dummy, ages to work it out…)

petitions |>
  pivot_longer(-petition_id, names_to = "variable", values_to = "value") |>
  count(variable, value) 

# A tibble: 23 × 3
   variable        value          n
   <chr>           <chr>      <int>
 1 petition_gender f            132
 2 petition_gender fm            27
 3 petition_gender m            354
 4 petition_gender <NA>         100
 5 petition_type   collective   112
 6 petition_type   multiple      73
 7 petition_type   single       428
 8 response        negative     255
 9 response        positive     334
10 response        <NA>          24
# ℹ 13 more rows
…
For this make a little helper function.

across_count <- function(data, vars) {
  data |>
    count(across(all_of({{vars}})))
}

tada!

petition_cat_names_list |>
  map(~across_count(petitions_cat, .x))

$tp
# A tibble: 33 × 3
   topic              petition_type     n
   <chr>              <chr>         <int>
 1 alehouse           collective        4
 2 alehouse           single           13
 3 charitable brief   collective        5
 4 charitable brief   multiple          2
 5 charitable brief   single            9
 6 cottage            collective        4
 7 cottage            multiple         11
 8 cottage            single           77
 9 dissenting worship multiple          3
10 dissenting worship single            2
# ℹ 23 more rows

$tg
# A tibble: 37 × 3
   topic            petition_gender     n
   <chr>            <chr>           <int>
 1 alehouse         f                   2
 2 alehouse         m                  12
 3 alehouse         <NA>                3
 4 charitable brief f                   1
 5 charitable brief fm                  1
 6 charitable brief m                  10
 7 charitable brief <NA>                4
 8 cottage          f                  19
 9 cottage          fm                  7
10 cottage          m                  64
# ℹ 27 more rows

$tr
# A tibble: 32 × 3
   topic              response     n
   <chr>              <chr>    <int>
 1 alehouse           negative    10
 2 alehouse           positive     7
 3 charitable brief   negative     8
 4 charitable brief   positive     7
 5 charitable brief   <NA>         1
 6 cottage            negative    31
 7 cottage            positive    59
 8 cottage            <NA>         2
 9 dissenting worship negative     5
10 employment         negative     4
# ℹ 22 more rows
…
start with map in the group_by function to create a list of three grouped DFs, and then summarise inside the map (took me so long to work this out…)

petition_cat_names_list |> 
  map(~across_group_by(petitions_cat, .x) |>  
        summarise(n = n(), .groups = "drop_last") |> 
        ungroup() |>
        mutate(pct = round(n/sum(n)*100, 2))
      )

$tp
# A tibble: 33 × 4
   topic              petition_type     n   pct
   <chr>              <chr>         <int> <dbl>
 1 alehouse           collective        4  0.65
 2 alehouse           single           13  2.12
 3 charitable brief   collective        5  0.82
 4 charitable brief   multiple          2  0.33
 5 charitable brief   single            9  1.47
 6 cottage            collective        4  0.65
 7 cottage            multiple         11  1.79
 8 cottage            single           77 12.6 
 9 dissenting worship multiple          3  0.49
10 dissenting worship single            2  0.33
# ℹ 23 more rows

$tg
# A tibble: 37 × 4
   topic            petition_gender     n   pct
   <chr>            <chr>           <int> <dbl>
 1 alehouse         f                   2  0.33
 2 alehouse         m                  12  1.96
 3 alehouse         <NA>                3  0.49
 4 charitable brief f                   1  0.16
 5 charitable brief fm                  1  0.16
 6 charitable brief m                  10  1.63
 7 charitable brief <NA>                4  0.65
 8 cottage          f                  19  3.1 
 9 cottage          fm                  7  1.14
10 cottage          m                  64 10.4 
# ℹ 27 more rows

$tr
# A tibble: 32 × 4
   topic              response     n   pct
   <chr>              <chr>    <int> <dbl>
 1 alehouse           negative    10  1.63
 2 alehouse           positive     7  1.14
 3 charitable brief   negative     8  1.31
 4 charitable brief   positive     7  1.14
 5 charitable brief   <NA>         1  0.16
 6 cottage            negative    31  5.06
 7 cottage            positive    59  9.62
 8 cottage            <NA>         2  0.33
 9 dissenting worship negative     5  0.82
10 employment         negative     4  0.65
# ℹ 22 more rows
…
