variable as column name – TIL
…
On the left hand side of a mutate (eg, you want to base the new column name on the old one) is slightly more complex: use !! and :=

addressing_health |>
  select(all_of(c(losy, pad))) |>
  filter(get(losy) > 45) |>
  # nb !! goes outside paste()
  mutate(!! paste0("p_", losy) := get(losy)/get(pad))

# A tibble: 28 × 3
   length_of_service_years ppg_allowance_decimal p_length_of_service_years
                     <dbl>                 <dbl>                     <dbl>
 1                      48                 104                       0.462
 2                      51                  35.9                     1.42 
 3                      48                 353.                      0.136
 4                      46                  93.3                     0.493
 5                      46                  74.9                     0.614
 6                      48                  38.6                     1.24 
 7                      54                 237.                      0.228
 8                      50                 120.                      0.417
 9                      46                 300                       0.153
10                      50                  86.7                     0.577
# ℹ 18 more rows
…
