import bad dates with read_* functions (and fix them) – TIL
…
bad_dates_csv <-
  read_csv(here::here("data/llep_ba_exams_bad_dates.csv"),
           col_types = list(exam_date = col_character(), .default = col_guess() )
           ) 

turn the problem date into valid dates that lubridate will parse, and make a date_precision column. (But this won’t solve the problem with leap years.)

bad_dates_csv |>
  mutate(exam_date_precision = if_else(str_detect(exam_date, "-00$"), "ym", "ymd")) |>
  mutate(exam_date = str_replace(exam_date, "00$", "01")) |>
  mutate(exam_date = parse_date_time(exam_date, "ymd")) |>
  relocate(exam_date_precision, .after = exam_date)

# A tibble: 262 × 5
   exam_id        exam_date           exam_date_precision parish_code examinants
   <chr>          <dttm>              <chr>               <chr>       <chr>     
 1 GLBAEP1030000… 1788-09-01 00:00:00 ym                  BA          Martha Bu…
 2 GLBAEP1030000… 1788-10-01 00:00:00 ym                  BA          Hannah Go…
 3 GLBAEP1030000… 1788-10-01 00:00:00 ym                  BA          Morris Bo…
 4 GLBAEP1030000… 1788-10-01 00:00:00 ym                  BA          Edward Fl…
 5 GLBAEP1030000… 1788-12-01 00:00:00 ym                  BA          John Wils…
 6 GLBAEP1030000… 1788-12-01 00:00:00 ym                  BA          Richard P…
 7 GLBAEP1030000… 1788-12-01 00:00:00 ym                  BA          Mary Bayl…
 8 GLBAEP1030000… 1788-12-01 00:00:00 ym                  BA          Elizabeth…
 9 GLBAEP1030000… 1788-12-01 00:00:00 ym                  BA          Jonathan …
10 GLBAEP1030000… 1788-12-01 00:00:00 ym                  BA          Munn Vaug…
# ℹ 252 more rows
…
bad_dates_csv |>
  separate(exam_date, into = c("d1", "d2", "d3"), sep = "-", remove = F) |>
  mutate(exam_date_precision = case_when(
    is.na(exam_date) | exam_date=="" ~ NA, 
    d2=="00" ~ "y",
    d3=="00" ~ "ym",
    .default = "ymd"
  )) |>
  # \\b here should cover years like 1700 if needed; but check before using
  mutate(exam_date = str_replace_all(exam_date, "\\b00", "01")) |>
  mutate(exam_date = parse_date_time(exam_date, "ymd")) |>
  select(exam_date, exam_date_precision, d1, d2, d3)

# A tibble: 262 × 5
   exam_date           exam_date_precision d1    d2    d3   
   <dttm>              <chr>               <chr> <chr> <chr>
 1 1788-09-01 00:00:00 ym                  1788  09    00   
 2 1788-10-01 00:00:00 ym                  1788  10    00   
 3 1788-10-01 00:00:00 ym                  1788  10    00   
 4 1788-10-01 00:00:00 ym                  1788  10    00   
 5 1788-12-01 00:00:00 ym                  1788  12    00   
 6 1788-12-01 00:00:00 ym                  1788  12    00   
 7 1788-12-01 00:00:00 ym                  1788  12    00   
 8 1788-12-01 00:00:00 ym                  1788  12    00   
 9 1788-12-01 00:00:00 ym                  1788  12    00   
10 1788-12-01 00:00:00 ym                  1788  12    00   
# ℹ 252 more rows
…
