functions use a column name as an arg and convert to a string – TIL
…
$cottage
# A tibble: 92 × 12
   petition_id  year topic   subtopic petition_type  named_petrs petition_gender
         <dbl> <dbl> <chr>   <chr>    <chr>                <dbl> <chr>          
 1        1121  1590 cottage pro      multiple on b…           2 m              
 2        1125  1592 cottage pro      multiple on b…           2 m              
 3        1128  1594 cottage pro      single                   1 m              
 4        1130  1594 cottage pro      single                   1 m              
 5        1133  1597 cottage anti     collective               0 <NA>           
 6        1180  1618 cottage pro      multiple                 2 fm             
 7        1190  1618 cottage pro      single                   1 m              
 8        1192  1618 cottage pro      single                   1 m              
 9        1194  1618 cottage pro      single                   1 m              
10        1195  1618 cottage pro      single                   1 m              
# ℹ 82 more rows
# ℹ 5 more variables: response <chr>, petitioner <chr>, abstract <chr>,
#   reference <chr>, repository <chr>
…
$`imprisoned debtors`
# A tibble: 1 × 12
  petition_id  year topic     subtopic petition_type named_petrs petition_gender
        <dbl> <dbl> <chr>     <chr>    <chr>               <dbl> <chr>          
1        1714  1778 imprison… <NA>     single                  1 m              
# ℹ 5 more variables: response <chr>, petitioner <chr>, abstract <chr>,
#   reference <chr>, repository <chr>

$litigation
# A tibble: 178 × 12
   petition_id  year topic    subtopic petition_type named_petrs petition_gender
         <dbl> <dbl> <chr>    <chr>    <chr>               <dbl> <chr>          
 1        1116  1573 litigat… anti     collective              0 <NA>           
 2        1117  1577 litigat… anti     single                  1 m              
 3        1118  1587 litigat… anti     single                  1 m              
 4        1119  1589 litigat… anti     single                  1 f              
 5        1120  1590 litigat… anti     single                  1 m              
 6        1122  1590 litigat… anti     collective              0 <NA>           
 7        1124  1592 litigat… anti     single                  1 m              
 8        1126  1594 litigat… other    collective              0 <NA>           
 9        1127  1594 litigat… pro      multiple                3 fm             
10        1132  1597 litigat… anti     single                  1 m              
# ℹ 168 more rows
# ℹ 5 more variables: response <chr>, petitioner <chr>, abstract <chr>,
#   reference <chr>, repository <chr>

$`military relief`
# A tibble: 30 × 12
   petition_id  year topic    subtopic petition_type named_petrs petition_gender
         <dbl> <dbl> <chr>    <chr>    <chr>               <dbl> <chr>          
 1        1156  1608 militar… <NA>     single                  1 m              
 2        1165  1608 militar… <NA>     single                  1 m              
 3        1178  1618 militar… veteran  single                  1 m              
 4        1200  1618 militar… veteran  single                  1 m              
 5        1240  1628 militar… <NA>     single                  1 m              
 6        1250  1628 militar… <NA>     single                  1 m              
 7        1251  1628 militar… <NA>     single                  1 m              
 8        1260  1628 militar… <NA>     single                  1 m              
 9        1358  1648 militar… <NA>     single                  1 f              
10        1523  1658 militar… widow    single                  1 f              
# ℹ 20 more rows
# ℹ 5 more variables: response <chr>, petitioner <chr>, abstract <chr>,
#   reference <chr>, repository <chr>

$officeholding
# A tibble: 21 × 12
   petition_id  year topic    subtopic petition_type named_petrs petition_gender
         <dbl> <dbl> <chr>    <chr>    <chr>               <dbl> <chr>          
 1        1123  1592 officeh… dischar… single                  1 m              
 2        1138  1598 officeh… other    multiple                2 m              
 3        1157  1608 officeh… <NA>     single                  1 m              
 4        1368  1648 officeh… <NA>     single                  1 m              
 5        1391  1648 officeh… <NA>     single                  1 m              
 6        1397  1648 officeh… <NA>     collective              0 <NA>           
 7        1402  1648 officeh… <NA>     multiple                2 m              
 8        1411  1648 officeh… <NA>     single                  1 m              
 9        1421  1648 officeh… <NA>     collective              0 <NA>           
10        1480  1648 officeh… <NA>     single                  1 m              
# ℹ 11 more rows
# ℹ 5 more variables: response <chr>, petitioner <chr>, abstract <chr>,
#   reference <chr>, repository <chr>
…
$paternity
# A tibble: 63 × 12
   petition_id  year topic    subtopic petition_type named_petrs petition_gender
         <dbl> <dbl> <chr>    <chr>    <chr>               <dbl> <chr>          
 1        1152  1608 paterni… <NA>     collective              0 <NA>           
 2        1158  1608 paterni… <NA>     single                  1 f              
 3        1166  1608 paterni… <NA>     single                  1 f              
 4        1185  1618 paterni… pro      single                  1 f              
 5        1201  1618 paterni… pro      single                  1 f              
 6        1209  1618 paterni… pro      single                  1 m              
 7        1218  1618 paterni… pro      single                  1 f              
 8        1230  1618 paterni… anti     single                  1 m              
 9        1249  1628 paterni… <NA>     single                  1 f              
10        1263  1628 paterni… <NA>     single                  1 m              
# ℹ 53 more rows
# ℹ 5 more variables: response <chr>, petitioner <chr>, abstract <chr>,
#   reference <chr>, repository <chr>

$`poor relief`
# A tibble: 80 × 12
   petition_id  year topic    subtopic petition_type named_petrs petition_gender
         <dbl> <dbl> <chr>    <chr>    <chr>               <dbl> <chr>          
 1        1129  1594 poor re… pro      single                  1 m              
 2        1175  1618 poor re… pro      single                  1 f              
 3        1193  1618 poor re… pro      single                  1 f              
 4        1206  1618 poor re… pro      single                  1 m              
 5        1207  1618 poor re… pro      collective o…           1 m              
 6        1214  1618 poor re… pro      single                  1 f              
 7        1221  1618 poor re… pro      collective              0 <NA>           
 8        1227  1618 poor re… pro      multiple                2 fm             
 9        1233  1628 poor re… <NA>     collective              0 <NA>           
10        1262  1628 poor re… <NA>     single                  1 m              
# ℹ 70 more rows
# ℹ 5 more variables: response <chr>, petitioner <chr>, abstract <chr>,
#   reference <chr>, repository <chr>

$rates
# A tibble: 78 × 12
   petition_id  year topic subtopic petition_type named_petrs petition_gender
         <dbl> <dbl> <chr> <chr>    <chr>               <dbl> <chr>          
 1        1140  1599 rates anti     collective              0 <NA>           
 2        1146  1608 rates <NA>     multiple                2 m              
 3        1148  1608 rates <NA>     collective              0 <NA>           
 4        1151  1608 rates <NA>     collective              0 <NA>           
 5        1167  1608 rates <NA>     collective              0 <NA>           
 6        1169  1608 rates <NA>     single                  1 m              
 7        1243  1628 rates <NA>     collective              0 <NA>           
 8        1247  1628 rates <NA>     collective              0 <NA>           
 9        1253  1628 rates <NA>     single                  1 m              
10        1257  1628 rates <NA>     multiple                6 m              
# ℹ 68 more rows
# ℹ 5 more variables: response <chr>, petitioner <chr>, abstract <chr>,
#   reference <chr>, repository <chr>
…
